03 - Manipulation et données Tidy – PRO1036
…
Select

Sélection d’une variable

Nous allons sélectionner la variable lead_time, qui représente le temps entre la date de réservation et la date d’arrivée

select(hotels, lead_time)

# A tibble: 119,390 × 1
   lead_time
       <dbl>
 1       342
 2       737
 3         7
 4        13
 5        14
 6        14
 7         0
 8         9
 9        85
10        75
# ℹ 119,380 more rows

Équivalent:

hotels %>%
  select(lead_time)

Sélection de plusieurs variables

Nous allons maintenant ajouter la variable hotel qui indique s’il s’agit d’un hotel de ville ou un resort

hotels %>%
  select(hotel, lead_time)

# A tibble: 119,390 × 2
   hotel        lead_time
   <chr>            <dbl>
 1 Resort Hotel       342
 2 Resort Hotel       737
 3 Resort Hotel         7
 4 Resort Hotel        13
 5 Resort Hotel        14
 6 Resort Hotel        14
 7 Resort Hotel         0
 8 Resort Hotel         9
 9 Resort Hotel        85
10 Resort Hotel        75
# ℹ 119,380 more rows

Exclusion de variables

hotels %>%
  select(hotel, lead_time, agent) %>%
  select(-agent)

# A tibble: 119,390 × 2
   hotel        lead_time
   <chr>            <dbl>
 1 Resort Hotel       342
 2 Resort Hotel       737
 3 Resort Hotel         7
 4 Resort Hotel        13
 5 Resort Hotel        14
 6 Resort Hotel        14
 7 Resort Hotel         0
 8 Resort Hotel         9
 9 Resort Hotel        85
10 Resort Hotel        75
# ℹ 119,380 more rows

Sélection d’une plage de variables

hotels %>%
  select(hotel:arrival_date_month)

# A tibble: 119,390 × 5
   hotel        is_canceled lead_time arrival_date_year arrival_date_month
   <chr>              <dbl>     <dbl>             <dbl> <chr>             
 1 Resort Hotel           0       342              2015 July              
 2 Resort Hotel           0       737              2015 July              
 3 Resort Hotel           0         7              2015 July              
 4 Resort Hotel           0        13              2015 July              
 5 Resort Hotel           0        14              2015 July              
 6 Resort Hotel           0        14              2015 July              
 7 Resort Hotel           0         0              2015 July              
 8 Resort Hotel           0         9              2015 July              
 9 Resort Hotel           1        85              2015 July              
10 Resort Hotel           1        75              2015 July              
# ℹ 119,380 more rows

Sélection de variables selon une condition

hotels %>%
  select(starts_with("arrival"))

# A tibble: 119,390 × 4
   arrival_date_year arrival_date_month arrival_date_week_number
               <dbl> <chr>                                 <dbl>
 1              2015 July                                     27
 2              2015 July                                     27
 3              2015 July                                     27
 4              2015 July                                     27
 5              2015 July                                     27
 6              2015 July                                     27
 7              2015 July                                     27
 8              2015 July                                     27
 9              2015 July                                     27
10              2015 July                                     27
# ℹ 119,380 more rows
# ℹ 1 more variable: arrival_date_day_of_month <dbl>

Sélection de variables selon une condition

hotels %>%
  select(ends_with("type"))

# A tibble: 119,390 × 4
   reserved_room_type assigned_room_type deposit_type customer_type
   <chr>              <chr>              <chr>        <chr>        
 1 C                  C                  No Deposit   Transient    
 2 C                  C                  No Deposit   Transient    
 3 A                  C                  No Deposit   Transient    
 4 A                  A                  No Deposit   Transient    
 5 A                  A                  No Deposit   Transient    
 6 A                  A                  No Deposit   Transient    
 7 C                  C                  No Deposit   Transient    
 8 C                  C                  No Deposit   Transient    
 9 A                  A                  No Deposit   Transient    
10 D                  D                  No Deposit   Transient    
# ℹ 119,380 more rows
…
matches(): Match une expression régulière

Pour avoir plus d’information sur ces fonctions, utilisez l’aide ?... !

Arrange

Ordonner les lignes

Par défaut, les lignes sont arrangées en ordre croissant. Il est possible de préciser l’ordre décroissant avec desc()

hotels %>%
  select(adults, children, babies) %>%
  arrange(babies)

# A tibble: 119,390 × 3
   adults children babies
    <dbl>    <dbl>  <dbl>
 1      2        0      0
 2      2        0      0
 3      1        0      0
 4      1        0      0
 5      2        0      0
 6      2        0      0
 7      2        0      0
 8      2        0      0
 9      2        0      0
10      2        0      0
# ℹ 119,380 more rows

hotels %>%
  select(adults, children, babies) %>%
  arrange(desc(babies))

# A tibble: 119,390 × 3
   adults children babies
    <dbl>    <dbl>  <dbl>
 1      2        0     10
 2      1        0      9
 3      2        0      2
 4      2        0      2
 5      2        0      2
 6      2        0      2
 7      2        0      2
 8      2        0      2
 9      2        0      2
10      2        0      2
# ℹ 119,380 more rows
…
filter

Sélection de lignes

La sélection se base sur des conditions

hotels %>%
  filter(hotel == "City Hotel")

# A tibble: 79,330 × 32
   hotel      is_canceled lead_time arrival_date_year arrival_date_month
   <chr>            <dbl>     <dbl>             <dbl> <chr>             
 1 City Hotel           0         6              2015 July              
 2 City Hotel           1        88              2015 July              
 3 City Hotel           1        65              2015 July              
 4 City Hotel           1        92              2015 July              
 5 City Hotel           1       100              2015 July              
 6 City Hotel           1        79              2015 July              
 7 City Hotel           0         3              2015 July              
 8 City Hotel           1        63              2015 July              
 9 City Hotel           1        62              2015 July              
10 City Hotel           1        62              2015 July              
# ℹ 79,320 more rows
# ℹ 27 more variables: arrival_date_week_number <dbl>,
#   arrival_date_day_of_month <dbl>, stays_in_weekend_nights <dbl>,
#   stays_in_week_nights <dbl>, adults <dbl>, children <dbl>, babies <dbl>,
#   meal <chr>, country <chr>, market_segment <chr>,
#   distribution_channel <chr>, is_repeated_guest <dbl>,
#   previous_cancellations <dbl>, previous_bookings_not_canceled <dbl>, …

Conditions multiples

On veut les réservations sans adultes ET plus qu’un enfant.

hotels %>%
  filter( 
    adults == 0,
    children >= 1
    ) %>% 
  select(adults, babies, children)

# A tibble: 223 × 3
   adults babies children
    <dbl>  <dbl>    <dbl>
 1      0      0        3
 2      0      0        2
 3      0      0        2
 4      0      0        2
 5      0      0        2
 6      0      0        3
 7      0      1        2
 8      0      0        2
 9      0      0        2
10      0      0        2
# ℹ 213 more rows

Conditions multiples

On veut les réservations sans adultes ET, plus qu’un enfant OU plus qu’un bébé.

hotels %>%
  filter( 
    adults == 0,
    children >= 1 | babies >= 1 # le | veut dire "ou"
    ) %>% 
  select(adults, babies, children)

# A tibble: 223 × 3
   adults babies children
    <dbl>  <dbl>    <dbl>
 1      0      0        3
 2      0      0        2
 3      0      0        2
 4      0      0        2
 5      0      0        2
 6      0      0        3
 7      0      1        2
 8      0      0        2
 9      0      0        2
10      0      0        2
# ℹ 213 more rows
…
mutate

Ajout de nouvelles variables

hotels %>%
  mutate(little_ones = children + babies) %>%
  select(children, babies, little_ones) %>%
  arrange(desc(little_ones))

# A tibble: 119,390 × 3
   children babies little_ones
      <dbl>  <dbl>       <dbl>
 1       10      0          10
 2        0     10          10
 3        0      9           9
 4        2      1           3
 5        2      1           3
 6        2      1           3
 7        3      0           3
 8        2      1           3
 9        2      1           3
10        3      0           3
# ℹ 119,380 more rows
…
