PRO1036 – 04 - Types de données et transformations
…
  PRO1036 - Analyse de données scientifiques en R

Tim Bollé 

  September 30, 2024

Pourquoi s’intéresser aux types de données ?

Exemple: Cat lovers

Un sondage a demandé à des gens leur nom et le nombre de chat qu’ils possèdent. Les instructions indiquaient d’entrer le nombre de chats en chiffres.

cat_lovers <- read_csv("data/cat-lovers.csv")

# A tibble: 60 × 3
   name           number_of_cats handedness
   <chr>          <chr>          <chr>     
 1 Bernice Warren 0              left      
 2 Woodrow Stone  0              left      
 3 Willie Bass    1              left      
 4 Tyrone Estrada 3              left      
 5 Alex Daniels   3              left      
 6 Jane Bates     2              left      
 7 Latoya Simpson 1              left      
 8 Darin Woods    1              left      
 9 Agnes Cobb     0              left      
10 Tabitha Grant  0              left      
# ℹ 50 more rows
…
Regroupement de facteurs

Utile quand on a beaucoup de niveaux

starwars %>%
  count(skin_color, sort = TRUE)

# A tibble: 31 × 2
   skin_color     n
   <chr>      <int>
 1 fair          17
 2 light         11
 3 dark           6
 4 green          6
 5 grey           6
 6 pale           5
 7 brown          4
 8 blue           2
 9 blue, grey     2
10 none           2
# ℹ 21 more rows
…
Nous allons voir les bases mais travailler avec des dates peut s’avérer complexe mais cela peut apporter beaucoup à une analyse.

Calculer et visualiser le nombre de réservations à une date d’arrivée donnée

Étape 1 - Construire la date

library(glue) # glue permet de coller des éléments ensemble

hotels %>%
  mutate(
    arrival_date = glue("{arrival_date_year} {arrival_date_month} {arrival_date_day_of_month}")
    ) %>% 
  relocate(arrival_date) # pour afficher la nouvelle colonne à gauche

# A tibble: 119,390 × 33
   arrival_date hotel is_canceled lead_time arrival_date_year arrival_date_month
   <glue>       <chr>       <dbl>     <dbl>             <dbl> <chr>             
 1 2015 July 1  Reso…           0       342              2015 July              
 2 2015 July 1  Reso…           0       737              2015 July              
 3 2015 July 1  Reso…           0         7              2015 July              
 4 2015 July 1  Reso…           0        13              2015 July              
 5 2015 July 1  Reso…           0        14              2015 July              
 6 2015 July 1  Reso…           0        14              2015 July              
 7 2015 July 1  Reso…           0         0              2015 July              
 8 2015 July 1  Reso…           0         9              2015 July              
 9 2015 July 1  Reso…           1        85              2015 July              
10 2015 July 1  Reso…           1        75              2015 July              
# ℹ 119,380 more rows
# ℹ 27 more variables: arrival_date_week_number <dbl>,
#   arrival_date_day_of_month <dbl>, stays_in_weekend_nights <dbl>,
#   stays_in_week_nights <dbl>, adults <dbl>, children <dbl>, babies <dbl>,
#   meal <chr>, country <chr>, market_segment <chr>,
#   distribution_channel <chr>, is_repeated_guest <dbl>,
#   previous_cancellations <dbl>, previous_bookings_not_canceled <dbl>, …

Étape 2 - Compter les réservations par dates

hotels %>%
  mutate(arrival_date = glue("{arrival_date_year} {arrival_date_month} {arrival_date_day_of_month}")) %>%
  count(arrival_date)

# A tibble: 793 × 2
   arrival_date       n
   <glue>         <int>
 1 2015 August 1    110
 2 2015 August 10   207
 3 2015 August 11   117
 4 2015 August 12   133
 5 2015 August 13   107
 6 2015 August 14   329
 7 2015 August 15   190
 8 2015 August 16    98
 9 2015 August 17   188
10 2015 August 18    94
# ℹ 783 more rows
…
Étape 1 - Construire la date (comme une date)

library(lubridate) # pour les dates

hotels %>%
  mutate(
    arrival_date = ymd(glue("{arrival_date_year} {arrival_date_month} {arrival_date_day_of_month}"))
    ) %>% 
  relocate(arrival_date)

# A tibble: 119,390 × 33
   arrival_date hotel is_canceled lead_time arrival_date_year arrival_date_month
   <date>       <chr>       <dbl>     <dbl>             <dbl> <chr>             
 1 2015-07-01   Reso…           0       342              2015 July              
 2 2015-07-01   Reso…           0       737              2015 July              
 3 2015-07-01   Reso…           0         7              2015 July              
 4 2015-07-01   Reso…           0        13              2015 July              
 5 2015-07-01   Reso…           0        14              2015 July              
 6 2015-07-01   Reso…           0        14              2015 July              
 7 2015-07-01   Reso…           0         0              2015 July              
 8 2015-07-01   Reso…           0         9              2015 July              
 9 2015-07-01   Reso…           1        85              2015 July              
10 2015-07-01   Reso…           1        75              2015 July              
# ℹ 119,380 more rows
# ℹ 27 more variables: arrival_date_week_number <dbl>,
#   arrival_date_day_of_month <dbl>, stays_in_weekend_nights <dbl>,
#   stays_in_week_nights <dbl>, adults <dbl>, children <dbl>, babies <dbl>,
#   meal <chr>, country <chr>, market_segment <chr>,
#   distribution_channel <chr>, is_repeated_guest <dbl>,
#   previous_cancellations <dbl>, previous_bookings_not_canceled <dbl>, …

Étape 2 - Compter les réservations par dates

hotels %>%
  mutate(arrival_date = ymd(glue("{arrival_date_year} {arrival_date_month} {arrival_date_day_of_month}"))) %>% 
  count(arrival_date)

# A tibble: 793 × 2
   arrival_date     n
   <date>       <int>
 1 2015-07-01     122
 2 2015-07-02      93
 3 2015-07-03      56
 4 2015-07-04      88
 5 2015-07-05      53
 6 2015-07-06      75
 7 2015-07-07      54
 8 2015-07-08      69
 9 2015-07-09      80
10 2015-07-10      51
# ℹ 783 more rows
…
rel_inc %>%
  rename(
    religion = `Religious tradition`,
    n = `Sample Size`
  ) %>%
  pivot_longer( 
    cols = -c(religion, n),   # Toutes les colonnes sauf religion et n 
    names_to = "income",  
    values_to = "proportion" 
  ) %>% 
  print(n = 15)

Tidy !

# A tibble: 48 × 4
   religion                   n income            proportion
   <chr>                  <dbl> <chr>                  <dbl>
 1 Buddhist                 233 Less than $30,000       0.36
 2 Buddhist                 233 $30,000-$49,999         0.18
 3 Buddhist                 233 $50,000-$99,999         0.32
 4 Buddhist                 233 $100,000 or more        0.13
 5 Catholic                6137 Less than $30,000       0.36
 6 Catholic                6137 $30,000-$49,999         0.19
 7 Catholic                6137 $50,000-$99,999         0.26
 8 Catholic                6137 $100,000 or more        0.19
 9 Evangelical Protestant  7462 Less than $30,000       0.35
10 Evangelical Protestant  7462 $30,000-$49,999         0.22
11 Evangelical Protestant  7462 $50,000-$99,999         0.28
12 Evangelical Protestant  7462 $100,000 or more        0.14
13 Hindu                    172 Less than $30,000       0.17
14 Hindu                    172 $30,000-$49,999         0.13
15 Hindu                    172 $50,000-$99,999         0.34
# ℹ 33 more rows
Calcul des fréquences

rel_inc %>%
  rename(
    religion = `Religious tradition`,
    n = `Sample Size`
  ) %>%
  pivot_longer(
    cols = -c(religion, n), 
    names_to = "income", 
    values_to = "proportion"
  ) %>%
  mutate(frequency = round(proportion * n)) 

# A tibble: 48 × 5
   religion                   n income            proportion frequency
   <chr>                  <dbl> <chr>                  <dbl>     <dbl>
 1 Buddhist                 233 Less than $30,000       0.36        84
 2 Buddhist                 233 $30,000-$49,999         0.18        42
 3 Buddhist                 233 $50,000-$99,999         0.32        75
 4 Buddhist                 233 $100,000 or more        0.13        30
 5 Catholic                6137 Less than $30,000       0.36      2209
 6 Catholic                6137 $30,000-$49,999         0.19      1166
 7 Catholic                6137 $50,000-$99,999         0.26      1596
 8 Catholic                6137 $100,000 or more        0.19      1166
 9 Evangelical Protestant  7462 Less than $30,000       0.35      2612
10 Evangelical Protestant  7462 $30,000-$49,999         0.22      1642
# ℹ 38 more rows
…
