Lab11 - Statistiques inférentielles – PRO1036
…
Test d’hypothèses - Une variable numérique

Nous allons commencer par un test d’hypothèses sur une variable numérique. Supposons que nous voulons tester si le temps de travail hebdomadaire est égal à 40 heures en moyenne. Pour cela, nous allons effectuer un test d’hypothèses.

Nous allons commencer par spécifier la variable que nous voulons étudier. Pour cela nous pouvons utiliser la fonction specify(). Nous allons spécifier la variable hours qui représente le temps de travail hebdomadaire.

gss %>%
  specify(response = age)

Response: age (numeric)
# A tibble: 500 × 1
     age
   <dbl>
 1    36
 2    34
 3    24
 4    42
 5    31
 6    32
 7    48
 8    36
 9    30
10    33
# ℹ 490 more rows

Nous allons ensuite déclarer notre hypothèse nulle, qui est que le temps de travail hebdomadaire est égal à 40 heures en moyenne. Pour cela, nous utilisons la fonction hypothesize(). Le paramètre null permet de spécifier le type d’hypothèse nulle que nous voulons tester. Dans notre cas, nous allons tester une hypothèse nulle de type “point” avec une moyenne de 40 heures.

gss %>%
  specify(response = hours) %>%
  hypothesize(null = "point", mu = 40)

Response: hours (numeric)
Null Hypothesis: point
# A tibble: 500 × 1
   hours
   <dbl>
 1    50
 2    31
 3    40
 4    40
 5    40
 6    53
 7    32
 8    20
 9    40
10    40
# ℹ 490 more rows

Enfin, nous allons générer des données reflétant cette hypothèse nulle et calculer une distribution de statistiques à partir de ces données. Pour cela, nous utilisons les fonctions generate() et calculate().

generate() permet de générer des données reflétant l’hypothèse nulle. Le paramètre reps permet de spécifier le nombre de répétitions à effectuer. Plus le nombre de répétitions est élevé, plus la distribution de statistiques sera précise. Le paramètre type permet de spécifier le type de distribution à générer. Dans notre cas, nous allons générer une distribution de type “bootstrap”.

gss %>%
  specify(response = hours) %>%
  hypothesize(null = "point", mu = 40) %>%
  generate(reps = 1000, type = "bootstrap")

Response: hours (numeric)
Null Hypothesis: point
# A tibble: 500,000 × 2
# Groups:   replicate [1,000]
   replicate hours
       <int> <dbl>
 1         1  87.6
 2         1  46.6
 3         1  38.6
 4         1  48.6
 5         1  48.6
 6         1  70.6
 7         1  38.6
 8         1  42.6
 9         1  58.6
10         1  48.6
# ℹ 499,990 more rows

Si vous regardez le résultat de cette fonction, vous verrez un tableau 500000 x 2. Chaque paquet de 500 lignes représente une répétition de l’échantillonnage bootstrap. La première colonne est l’index de l’échantillon bootstrap, et la deuxième colonne est la valeur calculée pour cet échantillon.

Enfin, nous allons calculer la distribution de statistiques à partir des données générées. Pour cela, nous utilisons la fonction calculate().

gss %>%
  specify(response = hours) %>%
  hypothesize(null = "point", mu = 40) %>%
  generate(reps = 1000, type = "bootstrap") %>%
  calculate(stat = "mean")

Response: hours (numeric)
Null Hypothesis: point
# A tibble: 1,000 × 2
   replicate  stat
       <int> <dbl>
 1         1  41.1
 2         2  40.9
 3         3  41.0
 4         4  40.7
 5         5  40.2
 6         6  40.4
 7         7  39.6
 8         8  40.2
 9         9  39.0
10        10  40.6
# ℹ 990 more rows
…
Reproduisez ce schéma.

Nous allons commencer par spécifier les variables que nous voulons étudier. Nous allons spécifier les variables hours et college qui représentent l’âge et le niveau d’éducation des répondants.

gss %>%
  specify(age ~ college)

Response: age (numeric)
Explanatory: college (factor)
# A tibble: 500 × 2
     age college  
   <dbl> <fct>    
 1    36 degree   
 2    34 no degree
 3    24 degree   
 4    42 no degree
 5    31 degree   
 6    32 no degree
 7    48 no degree
 8    36 degree   
 9    30 degree   
10    33 no degree
# ℹ 490 more rows
…
Reproduisez les deux graphes ci-dessus.

Nous allons commencer par spécifier les variables que nous voulons étudier. Nous allons spécifier les variables age et partyid.

gss %>%
  specify(age ~ partyid)

Dropping unused factor levels DK from the supplied explanatory variable
'partyid'.

Response: age (numeric)
Explanatory: partyid (factor)
# A tibble: 500 × 2
     age partyid
   <dbl> <fct>  
 1    36 ind    
 2    34 rep    
 3    24 ind    
 4    42 ind    
 5    31 rep    
 6    32 rep    
 7    48 dem    
 8    36 ind    
 9    30 rep    
10    33 dem    
# ℹ 490 more rows
…
