08 Classification
…
---

## Prédire les résultats sur l'ensemble des données de test

``` r
predict(email_fit, test_data)
```

```
## # A tibble: 785 × 1
##   .pred_class
##   <fct>      
## 1 0          
## 2 0          
## 3 0          
## 4 0          
## 5 0          
## 6 0          
## # ℹ 779 more rows
```

---

## Prédire les probabilités sur l'ensemble de données de test

``` r
email_pred <- predict(email_fit, test_data, type = "prob") %>%
  bind_cols(test_data %>% select(spam, time))

email_pred
```

```
## # A tibble: 785 × 4
##   .pred_0 .pred_1 spam  time               
##     <dbl>   <dbl> <fct> <dttm>             
## 1   0.993 0.00709 0     2012-01-01 12:55:06
## 2   0.998 0.00181 0     2012-01-01 14:38:32
## 3   0.981 0.0191  0     2012-01-02 00:42:16
## 4   0.999 0.00124 0     2012-01-02 10:12:51
## 5   0.988 0.0121  0     2012-01-02 11:45:36
## 6   0.830 0.170   0     2012-01-02 16:55:03
## # ℹ 779 more rows
```

---

## Un examen plus approfondi des prévisions

.pull-left-wide[

``` r
email_pred %>%
  arrange(desc(.pred_1)) %>%
  print(n = 10)
```

```
## # A tibble: 785 × 4
##    .pred_0 .pred_1 spam  time               
##      <dbl>   <dbl> <fct> <dttm>             
##  1  0.0972   0.903 1     2012-02-13 07:15:00
##  2  0.167    0.833 0     2012-01-27 15:05:06
*##  3  0.175    0.825 1     2012-03-01 00:40:27
##  4  0.267    0.733 1     2012-03-17 06:13:27
##  5  0.317    0.683 1     2012-03-21 08:33:12
##  6  0.374    0.626 1     2012-02-08 03:00:05
*##  7  0.386    0.614 0     2012-01-30 09:20:29
##  8  0.403    0.597 1     2012-01-07 11:11:49
##  9  0.462    0.538 1     2012-03-06 06:46:20
## 10  0.463    0.537 0     2012-02-17 17:54:16
## # ℹ 775 more rows
```
…
