PRO1036 – 09 - Machine Learning
…
Recherche des hyperparamètres

On peut maintenant lancer la recherche des hyperparamètres.

tune_res <- tune_grid(tune_spec,
                      class ~ .,         # On indique la formule
                      resamples = folds,
                      grid = tree_grid)

Analyse des résultats

tune_res %>% 
  collect_metrics()

# A tibble: 75 × 8
   cost_complexity tree_depth .metric     .estimator  mean     n std_err .config
             <dbl>      <int> <chr>       <chr>      <dbl> <int>   <dbl> <chr>  
 1    0.0000000001          1 accuracy    binary     0.731    10 0.0121  Prepro…
 2    0.0000000001          1 brier_class binary     0.170    10 0.00294 Prepro…
 3    0.0000000001          1 roc_auc     binary     0.764    10 0.00790 Prepro…
 4    0.0000000178          1 accuracy    binary     0.731    10 0.0121  Prepro…
 5    0.0000000178          1 brier_class binary     0.170    10 0.00294 Prepro…
 6    0.0000000178          1 roc_auc     binary     0.764    10 0.00790 Prepro…
 7    0.00000316            1 accuracy    binary     0.731    10 0.0121  Prepro…
 8    0.00000316            1 brier_class binary     0.170    10 0.00294 Prepro…
 9    0.00000316            1 roc_auc     binary     0.764    10 0.00790 Prepro…
10    0.000562              1 accuracy    binary     0.731    10 0.0121  Prepro…
# ℹ 65 more rows
…
Recettes

Nous pouvons maintenant appliquer des transformations sur les colonnes pour créer des variables adaptées à notre modèle.

Il existe de nombreuses recettes dans le package recipes. Elles ont toute la forme step_X() où X sera le nom d’une recette.

Par exemple, la recette step_date permet de transformer une date en une autre variable (jour de la semaine, mois, années, …)

flights_rec <- 
  recipe(arr_delay ~ ., data = train_data) %>%
  step_date(date, features = c("dow", "month"))

prep(flights_rec) %>% juice() %>% select(starts_with("date")) # Pour voir le résultat

# A tibble: 244,364 × 3
   date       date_dow date_month
   <date>     <fct>    <fct>     
 1 2013-05-03 Fri      May       
 2 2013-03-04 Mon      Mar       
 3 2013-02-20 Wed      Feb       
 4 2013-04-02 Tue      Apr       
 5 2013-06-13 Thu      Jun       
 6 2013-02-21 Thu      Feb       
 7 2013-05-08 Wed      May       
 8 2013-10-21 Mon      Oct       
 9 2013-11-12 Tue      Nov       
10 2013-09-11 Wed      Sep       
# ℹ 244,354 more rows
…
